[
  {
    "barcode": "3400933359591",
    "name": "FERVEX Adulte Sans Sucre",
    "description": "Paracéamol / Vitamine C / Maléate de phéniramine",
    "img": "3400933359591.jpg"
  },
  {
    "barcode": "3058320032031",
    "name": "Laque Cadonett DOP",
    "description": "Laque aux protéines de soie - Cheveux normaux",
    "img": "3058320032031.jpg"
  },
  {
  "barcode": "3561292236050",
  "name": "LG K4",
  "description": "Smartphone 4G",
  "img": "3561292236050.png"
  },
  {
  "barcode": "5449000214799",
  "name": "Coca Cola Zero",
  "description": "Real taste, no sugar.",
  "img": "coca.png"
  },
  {
  "barcode": "7617014161530",
  "name": "Café Royal Lungo",
  "description": "Come taste swiss coffee",
  "img": "cafe.png"
  }
]
